Model characteristics analysis using Generalized Linear Mixed Models (GLMMs)
…
      } # End extremes loop
    } # End crops loop

Then we bind the outputs into one large dataframe for visualisation purpose, we only keep information on the fixed effects.

Code

fixed_effects <- c("dynamicHI", "varroots", "photosynthesis", "soilCN", "waterlogging", "complexTstress")

GLMM_df <- bind_rows(all_GLMM_summaries) %>%
 filter(term %in% fixed_effects)

GLMM_df

# A tibble: 59 × 6
   term           estimate conf.low conf.high crop  extreme
   <chr>             <dbl>    <dbl>     <dbl> <chr> <chr>  
 1 dynamicHI         0.518    0.201     1.34  mai   Dry    
 2 varroots          1.16     0.383     3.51  mai   Dry    
 3 photosynthesis    2.05     0.750     5.62  mai   Dry    
 4 soilCN            0.471    0.206     1.08  mai   Dry    
 5 complexTstress    0.542    0.156     1.89  mai   Dry    
 6 dynamicHI         0.552    0.319     0.957 mai   Hot    
 7 varroots          1.39     0.716     2.70  mai   Hot    
 8 photosynthesis    2.75     1.51      5.02  mai   Hot    
 9 soilCN            0.694    0.428     1.13  mai   Hot    
10 complexTstress    0.435    0.207     0.915 mai   Hot    
# ℹ 49 more rows
…
